<?xml version="1.0" encoding="utf-8"?>
<!-- Generator: Adobe Illustrator 15.1.0, SVG Export Plug-In  -->
<!DOCTYPE svg PUBLIC "-//W3C//DTD SVG 1.1//EN" "http://www.w3.org/Graphics/SVG/1.1/DTD/svg11.dtd" [
	<!ENTITY ns_flows "http://ns.adobe.com/Flows/1.0/">
]>
<svg version="1.1"
	 xmlns="http://www.w3.org/2000/svg" xmlns:xlink="http://www.w3.org/1999/xlink" xmlns:a="http://ns.adobe.com/AdobeSVGViewerExtensions/3.0/"
	 x="0px" y="0px" width="17px" height="17px" viewBox="0 0 17 17" enable-background="new 0 0 17 17" xml:space="preserve">
<defs>
</defs>
<g>
	<defs>
		<rect id="SVGID_1_" x="0" width="17.008" height="17.011"/>
	</defs>
	<clipPath id="SVGID_2_">
		<use xlink:href="#SVGID_1_"  overflow="visible"/>
	</clipPath>
	<path clip-path="url(#SVGID_2_)" fill="#676767" d="M13.721,0H3.288C1.475,0,0,1.475,0,3.287V6.76v6.964
		c0,1.812,1.475,3.287,3.288,3.287h10.433c1.813,0,3.287-1.476,3.287-3.287V6.76V3.287C17.008,1.475,15.534,0,13.721,0
		 M14.665,1.961l0.376-0.002v0.375v2.509l-2.874,0.009l-0.01-2.883L14.665,1.961z M6.078,6.76c0.544-0.755,1.427-1.249,2.426-1.249
		c0.999,0,1.883,0.494,2.427,1.249c0.355,0.492,0.567,1.094,0.567,1.745c0,1.651-1.344,2.994-2.994,2.994s-2.993-1.343-2.993-2.994
		C5.511,7.854,5.723,7.252,6.078,6.76 M15.351,13.724c0,0.898-0.73,1.63-1.63,1.63H3.288c-0.9,0-1.63-0.731-1.63-1.63V6.76h2.539
		c-0.22,0.539-0.343,1.128-0.343,1.745c0,2.564,2.086,4.652,4.65,4.652s4.65-2.088,4.65-4.652c0-0.617-0.124-1.206-0.343-1.745
		h2.539V13.724z"/>
</g>
</svg>
