<?xml version="1.0" encoding="utf-8"?>
<!-- Generator: Adobe Illustrator 15.1.0, SVG Export Plug-In  -->
<!DOCTYPE svg PUBLIC "-//W3C//DTD SVG 1.1//EN" "http://www.w3.org/Graphics/SVG/1.1/DTD/svg11.dtd" [
	<!ENTITY ns_flows "http://ns.adobe.com/Flows/1.0/">
]>
<svg version="1.1"
	 xmlns="http://www.w3.org/2000/svg" xmlns:xlink="http://www.w3.org/1999/xlink" xmlns:a="http://ns.adobe.com/AdobeSVGViewerExtensions/3.0/"
	 x="0px" y="0px" width="17px" height="14px" viewBox="0 0 17 14" enable-background="new 0 0 17 14" xml:space="preserve">
<defs>
</defs>
<g>
	<defs>
		<rect id="SVGID_1_" width="17.037" height="13.849"/>
	</defs>
	<clipPath id="SVGID_2_">
		<use xlink:href="#SVGID_1_"  overflow="visible"/>
	</clipPath>
	<path clip-path="url(#SVGID_2_)" fill="#676767" d="M17.037,1.64c-0.626,0.278-1.301,0.466-2.007,0.551
		c0.722-0.433,1.275-1.118,1.536-1.934c-0.676,0.401-1.423,0.691-2.221,0.847C13.71,0.425,12.801,0,11.795,0
		C9.866,0,8.301,1.567,8.301,3.496c0,0.275,0.029,0.54,0.09,0.796C5.486,4.146,2.911,2.756,1.186,0.639
		c-0.301,0.519-0.473,1.119-0.473,1.76c0,1.211,0.617,2.282,1.555,2.909C1.695,5.29,1.156,5.132,0.684,4.871v0.043
		c0,1.695,1.205,3.108,2.805,3.428C3.195,8.424,2.887,8.465,2.567,8.465c-0.225,0-0.445-0.021-0.657-0.062
		c0.444,1.388,1.735,2.399,3.265,2.427c-1.197,0.938-2.704,1.496-4.341,1.496c-0.282,0-0.561-0.016-0.834-0.048
		c1.547,0.991,3.384,1.57,5.358,1.57c6.43,0,9.945-5.326,9.945-9.947c0-0.152-0.003-0.303-0.01-0.452
		C15.977,2.956,16.57,2.341,17.037,1.64"/>
</g>
</svg>
